A package to efficiently work with GEDI data • chewie
…
print(gedi_2a_sf)
#> Simple feature collection with 884 features and 10 fields
#> Geometry type: POINT
#> Dimension:     XY
#> Bounding box:  xmin: -124.069 ymin: 41.3609 xmax: -123.9959 ymax: 41.43904
#> Geodetic CRS:  WGS 84
#> # A tibble: 884 × 11
#>     beam date_time           elev_highestreturn elev_lowestmode   rh0    rh25
#>  * <int> <dttm>                           <dbl>           <dbl> <dbl>   <dbl>
#>  1     0 2023-01-25 06:09:05             -19.6           -23.8  -3.55 -1.12  
#>  2     0 2023-01-25 06:09:05             -20.7           -24.2  -3.89 -1.27  
#>  3     0 2023-01-25 06:09:05             -20.7           -24.2  -3.93 -1.27  
#>  4     0 2023-01-25 06:09:05              -2.29          -23.3  -3.37 -0.0300
#>  5     0 2023-01-25 06:09:05              27.7           -15.0  -2.54  9.70  
#>  6     0 2023-01-25 06:09:05              35.8             4.55 -3.74 12.1   
#>  7     0 2023-01-25 06:09:05              55.9            12.2  -1.57 16.8   
#>  8     0 2023-01-25 06:09:05              94.6            41.0  -1.53 25.8   
#>  9     0 2023-01-25 06:09:05              95.3            42.5  -3.78  6.06  
#> 10     0 2023-01-25 06:09:05              98.3            33.8  -2.32 29.9   
#> # ℹ 874 more rows
#> # ℹ 5 more variables: rh50 <dbl>, rh75 <dbl>, rh95 <dbl>, rh100 <dbl>,
#> #   geometry <POINT [°]>
…
