…
print(gedi_2a_sf)
#> Simple feature collection with 2798 features and 12 fields
#> Geometry type: POINT
#> Dimension:     XY
#> Bounding box:  xmin: -82.95697 ymin: 35.29232 xmax: -82.74454 ymax: 35.44537
#> Geodetic CRS:  WGS 84
#> # A tibble: 2,798 × 13
#>     beam date_time           solar_elevation lat_lowestmode lon_lowestmode
#>  * <int> <dttm>                        <dbl>          <dbl>          <dbl>
#>  1     2 2023-02-04 16:28:13            35.3           35.3          -82.9
#>  2     2 2023-02-04 16:28:13            35.3           35.3          -82.9
#>  3     2 2023-02-04 16:28:13            35.3           35.3          -82.9
#>  4     2 2023-02-04 16:28:13            35.3           35.3          -82.9
#>  5     2 2023-02-04 16:28:13            35.3           35.3          -82.9
#>  6     2 2023-02-04 16:28:13            35.3           35.3          -82.9
#>  7     2 2023-02-04 16:28:13            35.3           35.3          -82.9
#>  8     2 2023-02-04 16:28:13            35.3           35.3          -82.9
#>  9     2 2023-02-04 16:28:13            35.3           35.3          -82.9
#> 10     2 2023-02-04 16:28:13            35.3           35.3          -82.9
#> # ℹ 2,788 more rows
#> # ℹ 8 more variables: elev_highestreturn <dbl>, elev_lowestmode <dbl>,
#> #   rh0 <dbl>, rh25 <dbl>, rh50 <dbl>, rh75 <dbl>, rh100 <dbl>,
#> #   geometry <POINT [°]>
```
…
