GEDI Level 1B Waveforms • chewie
…
g1b_sf <- collect_gedi(gedi_1b_arrow, g1b_search)
#> Warning: Potentially unsafe or invalid elements have been discarded from R metadata.
#> ℹ Type: "externalptr"
#> → If you trust the source, you can set `options(arrow.unsafe_metadata = TRUE)` to preserve them.
#> Potentially unsafe or invalid elements have been discarded from R metadata.
#> ℹ Type: "externalptr"
#> → If you trust the source, you can set `options(arrow.unsafe_metadata = TRUE)` to preserve them.

print(g1b_sf)
#> Simple feature collection with 349 features and 82 fields
#> Geometry type: POINT
#> Dimension:     XY
#> Bounding box:  xmin: -124.0638 ymin: 41.39252 xmax: -123.9959 ymax: 41.43934
#> Geodetic CRS:  WGS 84
#> # A tibble: 349 × 83
#>    all_samples_sum  beam channel delta_time date_time           master_frac
#>  *           <int> <int>   <int>      <dbl> <dttm>                    <dbl>
#>  1        15977748     0       0 159862145. 2023-01-25 06:09:05      0.0832
#>  2        15982175     0       0 159862145. 2023-01-25 06:09:05      0.0915
#>  3        15974693     0       0 159862145. 2023-01-25 06:09:05      0.0998
#>  4        15983026     0       0 159862145. 2023-01-25 06:09:05      0.108 
#>  5        15991944     0       0 159862145. 2023-01-25 06:09:05      0.116 
#>  6        15978705     0       0 159862145. 2023-01-25 06:09:05      0.125 
#>  7        15973741     0       0 159862145. 2023-01-25 06:09:05      0.133 
#>  8        15981653     0       0 159862145. 2023-01-25 06:09:05      0.141 
#>  9        15991093     0       0 159862145. 2023-01-25 06:09:05      0.149 
#> 10        15999630     0       0 159862145. 2023-01-25 06:09:05      0.158 
#> # ℹ 339 more rows
#> # ℹ 77 more variables: master_int <int>, noise_mean_corrected <dbl>,
#> #   noise_stddev_corrected <dbl>, nsemean_even <dbl>, nsemean_odd <dbl>,
#> #   rx_energy <dbl>, rx_offset <int>, rx_open <int>, rx_sample_count <int>,
#> #   rx_sample_start_index <int>, selection_stretchers_x <int>,
#> #   selection_stretchers_y <int>, shot_number <chr>, stale_return_flag <int>,
#> #   th_left_used <int>, tx_egamplitude <dbl>, tx_egamplitude_error <dbl>, …
…
So, here’s the cool bit about the way the Level-1B data are
extracted. We can access the full waveform for every shot in the data
set by using the extract_waveforms() function. This
generates a long-form data frame with waveform amplitude, relative
elevation, and shot number for each shot. This enables the combined
analysis and comparison of many waveforms across space (and time when we
have multiple granules).

For example, here we take 8 of the waveforms…

g1b_wvf <- extract_waveforms(g1b_sf[100:108, ])

print(g1b_wvf)
#> # A tibble: 9,881 × 4
#>    shot_number        date_time           rxelevation rxwaveform
#>    <chr>              <dttm>                    <dbl>      <dbl>
#>  1 233300000300278259 2023-01-25 06:09:05        457.       247.
#>  2 233300000300278259 2023-01-25 06:09:05        457.       247.
#>  3 233300000300278259 2023-01-25 06:09:05        457.       245.
#>  4 233300000300278259 2023-01-25 06:09:05        457.       243.
#>  5 233300000300278259 2023-01-25 06:09:05        456.       242.
#>  6 233300000300278259 2023-01-25 06:09:05        456.       241.
#>  7 233300000300278259 2023-01-25 06:09:05        456.       242.
#>  8 233300000300278259 2023-01-25 06:09:05        456.       243.
#>  9 233300000300278259 2023-01-25 06:09:05        456.       245.
#> 10 233300000300278259 2023-01-25 06:09:05        456.       246.
#> # ℹ 9,871 more rows
…
